{"data":[{"blood":false,"avatar":"https:\/\/cdn.services-k8s.prod.aws.htb.systems\/content\/machines\/avatar\/9e4d90d4-8297-4405-8ebf-14f6bd0792bd.png","avatarUrl":"content\/machines\/avatar\/9e4d90d4-8297-4405-8ebf-14f6bd0792bd.png","type":"root","id":223,"name":"Monteverde","points":0,"ownDate":"2026-07-20T12:02:48.000Z"},{"blood":false,"avatar":"https:\/\/cdn.services-k8s.prod.aws.htb.systems\/content\/machines\/avatar\/9e4d90d4-8297-4405-8ebf-14f6bd0792bd.png","avatarUrl":"content\/machines\/avatar\/9e4d90d4-8297-4405-8ebf-14f6bd0792bd.png","type":"user","id":223,"name":"Monteverde","points":0,"ownDate":"2026-07-17T23:16:45.000Z"},{"blood":false,"avatar":"https:\/\/cdn.services-k8s.prod.aws.htb.systems\/content\/machines\/avatar\/9e4d90d5-dc8f-4276-afba-e99d3da016d3.png","avatarUrl":"content\/machines\/avatar\/9e4d90d5-dc8f-4276-afba-e99d3da016d3.png","type":"root","id":148,"name":"Active","points":0,"ownDate":"2026-07-17T15:10:06.000Z"},{"blood":false,"avatar":"https:\/\/cdn.services-k8s.prod.aws.htb.systems\/content\/machines\/avatar\/9e4d90d5-dc8f-4276-afba-e99d3da016d3.png","avatarUrl":"content\/machines\/avatar\/9e4d90d5-dc8f-4276-afba-e99d3da016d3.png","type":"user","id":148,"name":"Active","points":0,"ownDate":"2026-07-17T14:03:21.000Z"},{"blood":false,"avatar":"https:\/\/cdn.services-k8s.prod.aws.htb.systems\/content\/machines\/avatar\/9e4d90d4-b56c-4328-a5c3-0b326d506afe.png","avatarUrl":"content\/machines\/avatar\/9e4d90d4-b56c-4328-a5c3-0b326d506afe.png","type":"root","id":212,"name":"Forest","points":0,"ownDate":"2026-07-10T18:53:19.000Z"},{"blood":false,"avatar":"https:\/\/cdn.services-k8s.prod.aws.htb.systems\/content\/machines\/avatar\/9e4d90d4-b56c-4328-a5c3-0b326d506afe.png","avatarUrl":"content\/machines\/avatar\/9e4d90d4-b56c-4328-a5c3-0b326d506afe.png","type":"user","id":212,"name":"Forest","points":0,"ownDate":"2026-07-10T14:52:22.000Z"},{"blood":false,"avatar":"https:\/\/cdn.services-k8s.prod.aws.htb.systems\/content\/machines\/avatar\/9e4d90d5-5c49-4c4c-ae3a-83b04b193b4f.png","avatarUrl":"content\/machines\/avatar\/9e4d90d5-5c49-4c4c-ae3a-83b04b193b4f.png","type":"root","id":177,"name":"Netmon","points":0,"ownDate":"2026-07-03T23:22:39.000Z"},{"blood":false,"avatar":"https:\/\/cdn.services-k8s.prod.aws.htb.systems\/content\/machines\/avatar\/9e4d90d5-5c49-4c4c-ae3a-83b04b193b4f.png","avatarUrl":"content\/machines\/avatar\/9e4d90d5-5c49-4c4c-ae3a-83b04b193b4f.png","type":"user","id":177,"name":"Netmon","points":0,"ownDate":"2026-07-03T22:38:50.000Z"},{"blood":false,"avatar":"https:\/\/cdn.services-k8s.prod.aws.htb.systems\/content\/machines\/avatar\/9e4d90d7-430a-45af-8f66-de5eab941ad9.png","avatarUrl":"content\/machines\/avatar\/9e4d90d7-430a-45af-8f66-de5eab941ad9.png","type":"user","id":51,"name":"Blue","points":0,"ownDate":"2026-07-02T18:50:17.000Z"},{"blood":false,"avatar":"https:\/\/cdn.services-k8s.prod.aws.htb.systems\/content\/machines\/avatar\/9e4d90d7-430a-45af-8f66-de5eab941ad9.png","avatarUrl":"content\/machines\/avatar\/9e4d90d7-430a-45af-8f66-de5eab941ad9.png","type":"root","id":51,"name":"Blue","points":0,"ownDate":"2026-07-02T18:49:27.000Z"},{"blood":false,"avatar":"https:\/\/cdn.services-k8s.prod.aws.htb.systems\/content\/machines\/avatar\/9e4d90d7-a3c6-4bf5-944f-b6d62ba830bb.png","avatarUrl":"content\/machines\/avatar\/9e4d90d7-a3c6-4bf5-944f-b6d62ba830bb.png","type":"root","id":1,"name":"Lame","points":0,"ownDate":"2026-07-02T14:19:33.000Z"},{"blood":false,"avatar":"https:\/\/cdn.services-k8s.prod.aws.htb.systems\/content\/machines\/avatar\/9e4d90d7-a3c6-4bf5-944f-b6d62ba830bb.png","avatarUrl":"content\/machines\/avatar\/9e4d90d7-a3c6-4bf5-944f-b6d62ba830bb.png","type":"user","id":1,"name":"Lame","points":0,"ownDate":"2026-07-02T14:19:11.000Z"},{"blood":false,"avatar":"https:\/\/cdn.services-k8s.prod.aws.htb.systems\/content\/machines\/avatar\/9e4d90d5-eec2-40f8-a422-d4825b3c1a89.png","avatarUrl":"content\/machines\/avatar\/9e4d90d5-eec2-40f8-a422-d4825b3c1a89.png","type":"root","id":144,"name":"Jerry","points":0,"ownDate":"2026-07-02T13:29:04.000Z"},{"blood":false,"avatar":"https:\/\/cdn.services-k8s.prod.aws.htb.systems\/content\/machines\/avatar\/9e4d90d5-eec2-40f8-a422-d4825b3c1a89.png","avatarUrl":"content\/machines\/avatar\/9e4d90d5-eec2-40f8-a422-d4825b3c1a89.png","type":"user","id":144,"name":"Jerry","points":0,"ownDate":"2026-07-02T13:28:46.000Z"},{"blood":false,"categoryName":"Reversing","avatar":"https:\/\/htb-mp-prod-public-storage.s3.eu-central-1.amazonaws.com\/challenge_categories\/c4ca4238a0b923820dcc509a6f75849b.svg","type":"challenge","id":806,"name":"SpookyPass","points":0,"ownDate":"2026-06-24T20:06:32.000Z"}],"meta":{"page":1,"lastPage":6,"totalItems":78}}